…
,  

age_principal <- loan %>%
  group_by(age, Gender) %>%
  summarise(mean_principal = mean(Principal))

age_principal

## # A tibble: 58 x 3
## # Groups:   age [?]
##      age Gender mean_principal
##    <int> <fct>           <dbl>
##  1    18 male             1000
##  2    19 female           1000
##  3    19 male             1000
##  4    20 male             1000
##  5    21 female           1000
##  6    21 male              967
##  7    22 male              912
##  8    23 female            650
##  9    23 male              838
## 10    24 female           1000
## # ... with 48 more rows
…
